{
	"info": {
		"_postman_id": "fb61b5da-4e63-44c8-b3c3-bcfd31739658",
		"name": "test_primaya",
		"schema": "https://schema.getpostman.com/json/collection/v2.1.0/collection.json"
	},
	"item": [
		{
			"name": "login",
			"request": {
				"method": "POST",
				"header": [],
				"url": {
					"raw": "http://127.0.01:8000/api/login?email=admin@mail.com&password=142536",
					"protocol": "http",
					"host": [
						"127",
						"0",
						"01"
					],
					"port": "8000",
					"path": [
						"api",
						"login"
					],
					"query": [
						{
							"key": "email",
							"value": "admin@mail.com"
						},
						{
							"key": "password",
							"value": "142536"
						}
					]
				}
			},
			"response": []
		},
		{
			"name": "getmenu",
			"request": {
				"auth": {
					"type": "bearer",
					"bearer": [
						{
							"key": "token",
							"value": "2|lUIOkpyMlsRHB8LlcMTXR1u8gghnPesh5bYokYGd",
							"type": "string"
						}
					]
				},
				"method": "POST",
				"header": [],
				"url": {
					"raw": "http://127.0.01:8000/api/getdaftarmenu",
					"protocol": "http",
					"host": [
						"127",
						"0",
						"01"
					],
					"port": "8000",
					"path": [
						"api",
						"getdaftarmenu"
					]
				}
			},
			"response": []
		}
	]
}